# ------------------------------------------------------------------------------
# Conforme forem reportados serao listados abaixos e apagados quando resolvidos
# ------------------------------------------------------------------------------
Nenhum ate o momento...
